{
  "name": "Level 1 More Colors!",
  "goalDescription" : [
  		"To complete this level you will have to:",
  		"- Switch positions of red and green"
  ],
  "stacks": [
    {
      "cubes": [
        {
          "color": [255,0,0],
          "ID" : 0,
          "type": "cube"
        }
      ]
    },
    {
      "cubes": [
      ]
    },
    {
      "cubes": [
        {
          "color": [0,255,0],
          "ID" : 1,
          "type": "cube"
        }
      ]
    }
  ],
  "levelComplete" : [
    {
      "cubes": [
        {
          "color": [0,255,0],
          "ID" : 1,
          "type": "cube"
        }
      ]
    },
    {
      "cubes": [
      ]
    },
    {
      "cubes": [
        {
          "color": [255,0,0],
          "ID" : 0,
          "type": "cube"
        }
      ]
    }
  ]
}